{"data":{"data":[{"single_use":true,"is_for_invoice":false,"is_for_checkout":false,"is_for_funding":false,"metadata":"{'invoice_id': '1000234'}","provider":{"id":"wema","bank_code":"035","bank_name":"Wema Bank","is_prefix":true,"requires_bvn":false,"prefixes":["222","919","888"],"fixed_amount_prefixes":["889"],"default":true},"first_name":"Mayokun","last_name":"Adeboye","email":"mayo@yopmail.com","phone_number":"08115279155","purpose":"Checks","is_permanent":false,"amount":100,"business_id":"0f639365-554b-4788-ad71-dcd8fa67acc4","account_number":"8890002520","account_name":"Mayokun Adeboye","account_ref":"act_nBNecSYKNWaz","created_at":"2024-02-27T16:40:35.000Z","status":"active"},{"single_use":false,"is_for_invoice":false,"is_for_checkout":false,"is_for_funding":false,"metadata":"{}","provider":{"id":"wema","bank_code":"035","bank_name":"Wema Bank","is_prefix":true,"requires_bvn":false,"prefixes":["222","919","888"],"fixed_amount_prefixes":["889"],"default":true},"first_name":"Sigrid","last_name":"bandwidth","email":"ereoluwa@yopmail.com","phone_number":"08060968939","purpose":"Funding Customer Wallet","is_permanent":true,"amount":0,"business_id":"0f639365-554b-4788-ad71-dcd8fa67acc4","account_number":"2220001783","account_name":"Sigrid bandwidth","account_ref":"act_sh7swPnM0sMo","created_at":"2024-02-27T16:40:17.000Z","status":"active"},{"single_use":false,"is_for_invoice":false,"is_for_checkout":false,"is_for_funding":false,"metadata":"{}","provider":{"id":"wema","bank_code":"035","bank_name":"Wema Bank","is_prefix":true,"requires_bvn":false,"prefixes":["222","919","888"],"fixed_amount_prefixes":["889"],"default":true},"first_name":"Pagac","last_name":"Arnold","email":"js@yopmail.com","phone_number":"08010940168","purpose":"Funding Customer Wallet","is_permanent":true,"amount":100,"business_id":"0f639365-554b-4788-ad71-dcd8fa67acc4","account_number":"8890002519","account_name":"Pagac Arnold","account_ref":"act_DhWEmryuX6Gs","created_at":"2024-02-27T16:40:02.000Z","status":"active"},{"single_use":true,"is_for_invoice":false,"is_for_checkout":false,"is_for_funding":false,"metadata":"{'invoice_id': '1000234'}","provider":{"id":"wema","bank_code":"035","bank_name":"Wema Bank","is_prefix":true,"requires_bvn":false,"prefixes":["809"],"fixed_amount_prefixes":["841"],"default":true},"first_name":"Mayokun","last_name":"Adeboye","email":"mayo@yopmail","phone_number":"08115279155","purpose":"Checks","is_permanent":false,"amount":100,"business_id":"0f639365-554b-4788-ad71-dcd8fa67acc4","account_number":"8890002518","account_name":"Mayokun Adeboye","account_ref":"act_czuEmypHSSJT","created_at":"2024-02-27T16:35:10.000Z","status":"active"},{"single_use":true,"is_for_invoice":false,"is_for_checkout":false,"is_for_funding":false,"metadata":"{'invoice_id': '1000234'}","provider":{"id":"wema","bank_code":"035","bank_name":"Wema Bank","is_prefix":true,"requires_bvn":false,"prefixes":["222","919","888"],"fixed_amount_prefixes":["889"],"default":true},"first_name":"Mayokun","last_name":"Adeboye","email":"mayo@yopmail","phone_number":"08115279155","purpose":"Checks","is_permanent":false,"amount":100,"business_id":"0f639365-554b-4788-ad71-dcd8fa67acc4","account_number":"8890002517","account_name":"Mayokun Adeboye","account_ref":"act_ePdRFgkVTVWa","created_at":"2024-02-27T16:29:39.000Z","status":"active"},{"single_use":false,"is_for_invoice":false,"is_for_checkout":false,"is_for_funding":false,"metadata":"{}","provider":{"id":"wema","bank_code":"035","bank_name":"Wema Bank","is_prefix":true,"requires_bvn":false,"prefixes":["222","919","888"],"fixed_amount_prefixes":["889"],"default":true},"first_name":"Dallin","last_name":"bandwidth","email":"ereoluwa@yopmail.com","phone_number":"08060968939","purpose":"Funding Customer Wallet","is_permanent":true,"amount":0,"business_id":"0f639365-554b-4788-ad71-dcd8fa67acc4","account_number":"2220001778","account_name":"Dallin bandwidth","account_ref":"act_Ey9dA1ODJ2Zx","created_at":"2024-02-27T16:29:19.000Z","status":"active"},{"single_use":false,"is_for_invoice":false,"is_for_checkout":false,"is_for_funding":false,"metadata":"{}","provider":{"id":"wema","bank_code":"035","bank_name":"Wema Bank","is_prefix":true,"requires_bvn":false,"prefixes":["222","919","888"],"fixed_amount_prefixes":["889"],"default":true},"first_name":"Jenkins","last_name":"Wyman","email":"js@yopmail.com","phone_number":"08010940168","purpose":"Funding Customer Wallet","is_permanent":true,"amount":100,"business_id":"0f639365-554b-4788-ad71-dcd8fa67acc4","account_number":"8890002516","account_name":"Jenkins Wyman","account_ref":"act_uEz51dGyIHwl","created_at":"2024-02-27T16:29:03.000Z","status":"active"},{"single_use":true,"is_for_invoice":false,"is_for_checkout":false,"is_for_funding":false,"metadata":"{'invoice_id': '1000234'}","provider":{"id":"wema","bank_code":"035","bank_name":"Wema Bank","is_prefix":true,"requires_bvn":false,"prefixes":["809"],"fixed_amount_prefixes":["841"],"default":true},"first_name":"Mayokun","last_name":"Adeboye","email":"mayo@yopmail","phone_number":"08115279155","purpose":"Checks","is_permanent":false,"amount":100,"business_id":"0f639365-554b-4788-ad71-dcd8fa67acc4","account_number":"8890002515","account_name":"Mayokun Adeboye","account_ref":"act_90KZEs6ZlnJ0","created_at":"2024-02-27T15:14:16.000Z","status":"active"},{"single_use":true,"is_for_invoice":false,"is_for_checkout":false,"is_for_funding":false,"metadata":"{'invoice_id': '1000234'}","provider":{"id":"wema","bank_code":"035","bank_name":"Wema Bank","is_prefix":true,"requires_bvn":false,"prefixes":["222","919","888"],"fixed_amount_prefixes":["889"],"default":true},"first_name":"Mayokun","last_name":"Adeboye","email":"mayo@yopmail","phone_number":"08115279155","purpose":"Checks","is_permanent":false,"amount":100,"business_id":"0f639365-554b-4788-ad71-dcd8fa67acc4","account_number":"8890002514","account_name":"Mayokun Adeboye","account_ref":"act_R1NvZaq5TTi7","created_at":"2024-02-27T14:58:13.000Z","status":"active"},{"single_use":false,"is_for_invoice":false,"is_for_checkout":false,"is_for_funding":false,"metadata":"{}","provider":{"id":"wema","bank_code":"035","bank_name":"Wema Bank","is_prefix":true,"requires_bvn":false,"prefixes":["222","919","888"],"fixed_amount_prefixes":["889"],"default":true},"first_name":"Audrey","last_name":"bandwidth","email":"ereoluwa@yopmail.com","phone_number":"08060968939","purpose":"Funding Customer Wallet","is_permanent":true,"amount":0,"business_id":"0f639365-554b-4788-ad71-dcd8fa67acc4","account_number":"2220001773","account_name":"Audrey bandwidth","account_ref":"act_KGm2um2jQfkb","created_at":"2024-02-27T14:57:54.000Z","status":"active"}],"meta":{"page":1,"limit":10,"previousPage":false,"nextPage":2,"pageCount":5,"total":44}},"errors":{},"message":"Request successful"}