{"data":{"data":[{"single_use":true,"is_for_invoice":false,"is_for_checkout":false,"is_for_funding":false,"metadata":"{'invoice_id': '1000234'}","provider":{"id":"wema","bank_code":"035","bank_name":"Wema Bank","is_prefix":true,"requires_bvn":false,"prefixes":["809"],"fixed_amount_prefixes":["841"],"default":true},"first_name":"Mayokun","last_name":"Adeboye","email":"mayo@yopmail.com","phone_number":"08115279155","purpose":"Checks","is_permanent":false,"amount":100,"business_id":"0f639365-554b-4788-ad71-dcd8fa67acc4","account_number":"8890002500","account_name":"Mayokun Adeboye","account_ref":"act_Cp0rgjeWNOac","created_at":"2024-02-26T10:07:47.000Z","status":"active"},{"single_use":false,"is_for_invoice":false,"is_for_checkout":false,"is_for_funding":false,"metadata":"{}","provider":{"id":"wema","bank_code":"035","bank_name":"Wema Bank","is_prefix":true,"requires_bvn":false,"prefixes":["222","919","888"],"fixed_amount_prefixes":["889"],"default":true},"first_name":"Jelly","last_name":"Manor","email":"jellym@yopmail.com","phone_number":"08090097888","purpose":"Funding Customer Wallet","is_permanent":true,"amount":0,"business_id":"0f639365-554b-4788-ad71-dcd8fa67acc4","account_number":"2220001744","account_name":"Jelly Manor","account_ref":"act_S8bb2XICrpr4","created_at":"2024-02-21T09:11:24.000Z","status":"active"},{"single_use":true,"is_for_invoice":true,"is_for_checkout":false,"is_for_funding":false,"metadata":"{}","provider":{"id":"wema","bank_code":"035","bank_name":"Wema Bank","is_prefix":true,"requires_bvn":false,"prefixes":["222","919","888"],"fixed_amount_prefixes":["889"],"default":true},"first_name":"Mr","last_name":"Viju","purpose":"Invoice virtual account number","is_permanent":false,"amount":200,"business_id":"0f639365-554b-4788-ad71-dcd8fa67acc4","account_number":"8890002494","account_name":"Mr Viju","account_ref":"act_FnWt0CEhskBJ","created_at":"2024-02-20T12:40:00.000Z","status":"active"},{"single_use":true,"is_for_invoice":false,"is_for_checkout":false,"is_for_funding":false,"metadata":"{'invoice_id': '1000234'}","provider":{"id":"wema","bank_code":"035","bank_name":"Wema Bank","is_prefix":true,"requires_bvn":false,"prefixes":["222","919","888"],"fixed_amount_prefixes":["889"],"default":true},"first_name":"Mayokun","last_name":"Adeboye","email":"mayo@yopmail.com","phone_number":"08115279155","purpose":"Checks","is_permanent":false,"amount":100,"business_id":"0f639365-554b-4788-ad71-dcd8fa67acc4","account_number":"8890002493","account_name":"Mayokun Adeboye","account_ref":"act_KMuhqVVFOFxm","created_at":"2024-02-19T16:19:42.000Z","status":"active"},{"single_use":false,"is_for_invoice":false,"is_for_checkout":false,"is_for_funding":false,"metadata":"{}","provider":{"id":"wema","bank_code":"035","bank_name":"Wema Bank","is_prefix":true,"requires_bvn":false,"prefixes":["222","919","888"],"fixed_amount_prefixes":["889"],"default":true},"first_name":"Goldner","last_name":"Levi","email":"js@yopmail.com","phone_number":"08010940168","purpose":"Funding Customer Wallet","is_permanent":true,"amount":100,"business_id":"0f639365-554b-4788-ad71-dcd8fa67acc4","account_number":"8890002490","account_name":"Goldner Levi","account_ref":"act_YwfSA0hpLRog","created_at":"2024-02-19T15:07:30.000Z","status":"active"},{"single_use":false,"is_for_invoice":false,"is_for_checkout":false,"is_for_funding":false,"metadata":"{}","provider":{"id":"wema","bank_code":"035","bank_name":"Wema Bank","is_prefix":true,"requires_bvn":false,"prefixes":["222","919","888"],"fixed_amount_prefixes":["889"],"default":true},"first_name":"Jason","last_name":"Statham","email":"js@yopmail.com","phone_number":"08010940168","purpose":"Funding Customer Wallet","is_permanent":true,"amount":100,"business_id":"0f639365-554b-4788-ad71-dcd8fa67acc4","account_number":"8890002489","account_name":"Jason Statham","account_ref":"act_ZkeUgG3Scoep","created_at":"2024-02-19T14:30:57.000Z","status":"active"},{"single_use":false,"is_for_invoice":false,"is_for_checkout":false,"is_for_funding":false,"metadata":"{}","provider":{"id":"wema","bank_code":"035","bank_name":"Wema Bank","is_prefix":true,"requires_bvn":false,"prefixes":["222","919","888"],"fixed_amount_prefixes":["889"],"default":true},"first_name":"Jason","last_name":"Statham","email":"js@yopmail.com","phone_number":"08010940168","purpose":"Funding Customer Wallet","is_permanent":true,"amount":100,"business_id":"0f639365-554b-4788-ad71-dcd8fa67acc4","account_number":"8890002488","account_name":"Jason Statham","account_ref":"act_ic61yhz0AU2T","created_at":"2024-02-19T14:30:30.000Z","status":"active"},{"single_use":true,"is_for_invoice":true,"is_for_checkout":false,"is_for_funding":false,"metadata":"{}","provider":{"id":"wema","bank_code":"035","bank_name":"Wema Bank","is_prefix":true,"requires_bvn":false,"prefixes":["222","919","888"],"fixed_amount_prefixes":["889"],"default":true},"first_name":"Mr","last_name":"Viju","purpose":"Invoice virtual account number","is_permanent":false,"amount":100,"business_id":"0f639365-554b-4788-ad71-dcd8fa67acc4","account_number":"8890002487","account_name":"Mr Viju","account_ref":"act_GfXiSkXZUWMU","created_at":"2024-02-19T14:00:10.000Z","status":"active"},{"single_use":false,"is_for_invoice":false,"is_for_checkout":false,"is_for_funding":false,"metadata":"{}","provider":{"id":"wema","bank_code":"035","bank_name":"Wema Bank","is_prefix":true,"requires_bvn":false,"prefixes":["222","919","888"],"fixed_amount_prefixes":["889"],"default":true},"first_name":"Imports","last_name":"bandwidth","email":"ereoluwa@yopmail.com","phone_number":"08060968935","purpose":"Funding Customer Wallet","is_permanent":true,"amount":0,"business_id":"0f639365-554b-4788-ad71-dcd8fa67acc4","account_number":"2220001742","account_name":"Imports bandwidth","account_ref":"act_xhpKUdYxNsAf","created_at":"2024-02-19T13:57:09.000Z","status":"active"},{"single_use":false,"is_for_invoice":false,"is_for_checkout":false,"is_for_funding":false,"metadata":"{}","provider":{"id":"wema","bank_code":"035","bank_name":"Wema Bank","is_prefix":true,"requires_bvn":false,"prefixes":["222","919","888"],"fixed_amount_prefixes":["889"],"default":true},"first_name":"Exports","last_name":"bandwidth","email":"ereoluwa@yopmail.com","phone_number":"08060968935","purpose":"Funding Customer Wallet","is_permanent":true,"amount":0,"business_id":"0f639365-554b-4788-ad71-dcd8fa67acc4","account_number":"2220001741","account_name":"Exports bandwidth","account_ref":"act_Vt3PDQzlnW5h","created_at":"2024-02-19T13:55:39.000Z","status":"active"}],"meta":{"page":1,"limit":10,"previousPage":false,"nextPage":2,"pageCount":2,"total":17}},"errors":{},"message":"Request successful"}