{"data":{"transactions":[{"sync_status":"n/a","currency":"NGN","supporting_documents":[],"is_for_bill":false,"is_expense_account_transaction":false,"transaction_trail":[],"is_automated_settlement":false,"description":"Transaction charge for inflow","business_id":"8ed10fcc-1e1c-4ad1-9ed8-e870d6543349","status":"successful","provider_ref_id":"","channel":"in-system","type":"debit","vat":null,"category":"fee","account_type":"business account","date":"2024-02-14T13:01:58.229Z","account_ref":"","transaction_ref":"dp_trans_bc71d26706cae26e780e67542423c63e","wallet_ref":"wal_I8WL06yWKnUA","amount":20,"fee_amount":20,"settled_amount":20,"new_balance":34964.9,"old_balance":34984.9,"multiple_source_details":[]},{"sync_status":"n/a","currency":"NGN","supporting_documents":[],"is_for_bill":false,"is_expense_account_transaction":false,"transaction_trail":[],"is_automated_settlement":false,"description":"Transaction charge for inflow","business_id":"8ed10fcc-1e1c-4ad1-9ed8-e870d6543349","status":"successful","provider_ref_id":"","channel":"in-system","type":"debit","vat":null,"category":"fee","account_type":"business account","date":"2024-02-14T13:00:54.553Z","account_ref":"","transaction_ref":"dp_trans_1da8ff745b72386a6b9ebacd59e6908c","wallet_ref":"wal_I8WL06yWKnUA","amount":15.1,"fee_amount":15.1,"settled_amount":15.1,"new_balance":31964.9,"old_balance":31980,"multiple_source_details":[]},{"sync_status":"n/a","currency":"NGN","supporting_documents":[],"is_for_bill":false,"is_expense_account_transaction":false,"transaction_trail":[],"is_automated_settlement":false,"description":"Transaction charge for inflow","business_id":"8ed10fcc-1e1c-4ad1-9ed8-e870d6543349","status":"successful","provider_ref_id":"","channel":"in-system","type":"debit","vat":null,"category":"fee","account_type":"business account","date":"2024-02-14T08:54:15.286Z","account_ref":"","transaction_ref":"dp_trans_d0603ca66470f43eedab922aa7e362a8","wallet_ref":"wal_I8WL06yWKnUA","amount":10,"fee_amount":10,"settled_amount":10,"new_balance":26940,"old_balance":26950,"multiple_source_details":[]},{"sync_status":"n/a","currency":"NGN","supporting_documents":[],"is_for_bill":false,"is_expense_account_transaction":false,"transaction_trail":[],"is_automated_settlement":false,"description":"Transaction charge for inflow","business_id":"8ed10fcc-1e1c-4ad1-9ed8-e870d6543349","status":"successful","provider_ref_id":"","channel":"in-system","type":"debit","vat":null,"category":"fee","account_type":"business account","date":"2024-02-14T08:50:03.003Z","account_ref":"","transaction_ref":"dp_trans_75d4945395549dae9e4e4be5ec57f676","wallet_ref":"wal_I8WL06yWKnUA","amount":10,"fee_amount":10,"settled_amount":10,"new_balance":25940,"old_balance":25950,"multiple_source_details":[]},{"sync_status":"n/a","currency":"NGN","supporting_documents":[],"is_for_bill":false,"is_expense_account_transaction":false,"transaction_trail":[],"is_automated_settlement":false,"description":"Transaction charge for inflow","business_id":"8ed10fcc-1e1c-4ad1-9ed8-e870d6543349","status":"successful","provider_ref_id":"","channel":"in-system","type":"debit","vat":null,"category":"fee","account_type":"business account","date":"2024-02-14T08:46:29.714Z","account_ref":"","transaction_ref":"dp_trans_6b175d8295ff3355724a392d6e927658","wallet_ref":"wal_I8WL06yWKnUA","amount":10,"fee_amount":10,"settled_amount":10,"new_balance":24950,"old_balance":24960,"multiple_source_details":[]},{"sync_status":"n/a","currency":"NGN","supporting_documents":[],"is_for_bill":false,"is_expense_account_transaction":false,"transaction_trail":[],"is_automated_settlement":false,"description":"Transaction charge for inflow","business_id":"8ed10fcc-1e1c-4ad1-9ed8-e870d6543349","status":"successful","provider_ref_id":"","channel":"in-system","type":"debit","vat":null,"category":"fee","account_type":"business account","date":"2024-02-13T11:16:13.979Z","account_ref":"","transaction_ref":"dp_trans_dc7e333e08445bc6fadb899e38af0efc","wallet_ref":"wal_I8WL06yWKnUA","amount":20,"fee_amount":20,"settled_amount":20,"new_balance":19960,"old_balance":19980,"multiple_source_details":[]},{"sync_status":"n/a","currency":"NGN","supporting_documents":[],"is_for_bill":false,"is_expense_account_transaction":false,"transaction_trail":[],"is_automated_settlement":false,"description":"Transaction charge for inflow","business_id":"8ed10fcc-1e1c-4ad1-9ed8-e870d6543349","status":"successful","provider_ref_id":"","channel":"in-system","type":"debit","vat":null,"category":"fee","account_type":"business account","date":"2024-02-13T11:12:29.244Z","account_ref":"","transaction_ref":"dp_trans_c41eabd2ffc1f69408230d70c6b8f844","wallet_ref":"wal_I8WL06yWKnUA","amount":20,"fee_amount":20,"settled_amount":20,"new_balance":9980,"old_balance":10000,"multiple_source_details":[]},{"sync_status":"n/a","currency":"NGN","supporting_documents":[],"is_for_bill":false,"is_expense_account_transaction":false,"transaction_trail":[],"is_automated_settlement":false,"description":"Transaction charge for inflow","business_id":"8ed10fcc-1e1c-4ad1-9ed8-e870d6543349","status":"successful","provider_ref_id":"","channel":"in-system","type":"debit","vat":null,"category":"fee","account_type":"business account","date":"2024-02-13T09:55:19.789Z","account_ref":"","transaction_ref":"dp_trans_5b44390a4c3e55f1b1631b4bb714d62d","wallet_ref":"wal_LuRmJZd2XGRJ","amount":20,"fee_amount":20,"settled_amount":20,"new_balance":31940,"old_balance":31960,"multiple_source_details":[]},{"sync_status":"n/a","currency":"NGN","supporting_documents":[],"is_for_bill":false,"is_expense_account_transaction":false,"transaction_trail":[],"is_automated_settlement":false,"description":"Transaction charge for inflow","business_id":"8ed10fcc-1e1c-4ad1-9ed8-e870d6543349","status":"successful","provider_ref_id":"","channel":"in-system","type":"debit","vat":null,"category":"fee","account_type":"business account","date":"2024-02-13T09:42:28.266Z","account_ref":"","transaction_ref":"dp_trans_9c19bd9e679e99ca76c20df0bb773153","wallet_ref":"wal_LuRmJZd2XGRJ","amount":20,"fee_amount":20,"settled_amount":20,"new_balance":19960,"old_balance":19980,"multiple_source_details":[]},{"sync_status":"n/a","currency":"NGN","supporting_documents":[],"is_for_bill":false,"is_expense_account_transaction":false,"transaction_trail":[],"is_automated_settlement":false,"description":"Transaction charge for inflow","business_id":"8ed10fcc-1e1c-4ad1-9ed8-e870d6543349","status":"successful","provider_ref_id":"","channel":"in-system","type":"debit","vat":null,"category":"fee","account_type":"business account","date":"2024-02-13T09:41:12.190Z","account_ref":"","transaction_ref":"dp_trans_50f533066b2671bd2e7d7b7ee19c599e","wallet_ref":"wal_LuRmJZd2XGRJ","amount":20,"fee_amount":20,"settled_amount":20,"new_balance":9980,"old_balance":10000,"multiple_source_details":[]},{"source_details":{"bank_name":"ACCESS BANK","account_name":"BELLO YAHAYA KURA","account_number":"1479459032"},"receiver_details":{"bank_name":"Wema Bank","account_name":"Tobi Village","account_number":"2220001250"},"sync_status":"n/a","currency":"NGN","supporting_documents":[],"is_for_bill":false,"is_expense_account_transaction":false,"transaction_trail":[],"is_automated_settlement":false,"new_balance":14050,"account_number":"2220001250","session_id":"0000142311101639092230689424680","provider_ref_id":"0000142311101863909223689424680","type":"credit","channel":"nip","description":"NIP:BELLO YAHAYA KURA-8090047423/EcovistaIndust/1","business_id":"8ed10fcc-1e1c-4ad1-9ed8-e870d6543349","account_ref":"act_uDIodM9KTk78","wallet_ref":"wal_U57Hmewl3rDd","status":"successful","transaction_ref":"tran_xZ9evN1dU5LO","fee_amount":0,"settled_amount":1200,"amount":1200,"date":"2024-02-05T17:45:12.545Z","category":"bank_transfer","multiple_source_details":[],"payment_method":"bank-transfer","account_type":"business account","old_balance":12850},{"sync_status":"n/a","currency":"NGN","supporting_documents":[],"is_for_bill":false,"is_expense_account_transaction":false,"transaction_trail":[],"is_automated_settlement":false,"amount":20,"description":"Transaction charge for stamp duty","business_id":"8ed10fcc-1e1c-4ad1-9ed8-e870d6543349","status":"successful","provider_ref_id":"","channel":"in-system","type":"debit","vat":null,"fee_amount":20,"account_ref":"","transaction_ref":"dp_trans_473f78ec9587bc9cc1335a3b80552d00","wallet_ref":"wal_eV9nNyLc54oO","settled_amount":20,"date":"2023-10-20T11:58:44.653Z","new_balance":263050.19,"category":"fee","multiple_source_details":[],"account_type":"business account","is_deleted":false},{"sync_status":"n/a","currency":"NGN","supporting_documents":[],"is_for_bill":false,"is_expense_account_transaction":false,"transaction_trail":[],"is_automated_settlement":false,"amount":500,"description":"Transaction charge for inflow","business_id":"8ed10fcc-1e1c-4ad1-9ed8-e870d6543349","status":"successful","provider_ref_id":"","channel":"in-system","type":"debit","vat":null,"fee_amount":500,"account_ref":"","transaction_ref":"dp_trans_92817f69b03c6085eb5d794ea0049b9e","wallet_ref":"wal_eV9nNyLc54oO","settled_amount":500,"date":"2023-10-20T11:58:44.217Z","new_balance":263070.19,"category":"fee","multiple_source_details":[],"account_type":"business account","is_deleted":false},{"source_details":{"bank_name":"ACCESS BANK","account_name":"David Igbigbi","account_number":"0694002924"},"receiver_details":{"bank_name":"Wema Bank","account_name":"Backend Test","account_number":"8890002369"},"sync_status":"n/a","currency":"NGN","supporting_documents":[],"is_for_bill":false,"is_expense_account_transaction":false,"transaction_trail":[],"is_automated_settlement":false,"new_balance":263570.19,"account_number":"8890002369","session_id":"4800000000709003945700080890000494808700000000o009000900","provider_ref_id":"40000000000490002039490980097400840000000500090300000","type":"credit","channel":"nip","description":"Second contract payment","business_id":"8ed10fcc-1e1c-4ad1-9ed8-e870d6543349","account":{"_id":"65325ce3e89466000d30331f","first_name":"Backend","last_name":"Test","account_ref":"act_aJ9HrHgjzkzY","status":"inactive"},"account_ref":"act_aJ9HrHgjzkzY","wallet_ref":"wal_eV9nNyLc54oO","status":"successful","transaction_ref":"tran_3CSaPVR3kiBg","fee_amount":0,"settled_amount":60500,"amount":60500,"date":"2023-10-20T11:58:31.013Z","category":"invoice","multiple_source_details":[],"payment_method":"pay-with-transfer","account_type":"business account","is_deleted":false},{"source_details":{"bank_name":"ACCESS BANK","account_name":"David Igbigbi","account_number":"0694002924"},"receiver_details":{"bank_name":"Wema Bank","account_name":"Backend Test","account_number":"8890002368"},"sync_status":"n/a","currency":"NGN","supporting_documents":[],"is_for_bill":false,"is_expense_account_transaction":false,"transaction_trail":[],"is_automated_settlement":false,"new_balance":228320.19,"account_number":"8890002368","session_id":"480000000070900394570008089000049480870000000o009000900","provider_ref_id":"4000000000049000203949098009740084000000500090300000","type":"credit","channel":"nip","description":"Second contract payment","business_id":"8ed10fcc-1e1c-4ad1-9ed8-e870d6543349","account":{"_id":"65325b29e89466000d30331d","first_name":"Backend","last_name":"Test","account_ref":"act_frHJ2DqQIcfV","status":"active"},"account_ref":"act_frHJ2DqQIcfV","wallet_ref":"wal_eV9nNyLc54oO","status":"successful","transaction_ref":"tran_gGPRhRMzxnHA","fee_amount":0,"settled_amount":25250,"amount":25250,"date":"2023-10-20T11:49:53.107Z","category":"invoice","multiple_source_details":[],"account_type":"business account","is_deleted":false},{"source_details":{"bank_name":"ACCESS BANK","account_name":"David Igbigbi","account_number":"0694002924"},"receiver_details":{"bank_name":"Wema Bank","account_name":"Backend Test","account_number":"8890002367"},"sync_status":"n/a","currency":"NGN","supporting_documents":[],"is_for_bill":false,"is_expense_account_transaction":false,"transaction_trail":[],"is_automated_settlement":false,"new_balance":228320.19,"account_number":"8890002367","session_id":"48000000007090039457000808900004948087000000o009000900","provider_ref_id":"400000000004900020394909800974008400000500090300000","type":"credit","channel":"nip","description":"Second contract payment","business_id":"8ed10fcc-1e1c-4ad1-9ed8-e870d6543349","account":{"_id":"65325822e89466000d30331b","first_name":"Backend","last_name":"Test","account_ref":"act_OFhxF5fDh74e","status":"active"},"account_ref":"act_OFhxF5fDh74e","wallet_ref":"wal_eV9nNyLc54oO","status":"successful","transaction_ref":"tran_mzHdWlERXdl4","fee_amount":0,"settled_amount":25250,"amount":25250,"date":"2023-10-20T11:37:19.578Z","category":"invoice","multiple_source_details":[],"account_type":"business account","is_deleted":false},{"sync_status":"n/a","currency":"NGN","supporting_documents":[],"is_for_bill":false,"is_expense_account_transaction":false,"transaction_trail":[],"is_automated_settlement":false,"amount":20,"description":"Transaction charge for stamp duty","business_id":"8ed10fcc-1e1c-4ad1-9ed8-e870d6543349","status":"successful","provider_ref_id":"","channel":"in-system","type":"debit","vat":null,"fee_amount":20,"account_ref":"","transaction_ref":"dp_trans_10f99b6a2d3af13a2f7ee41084ea7153","wallet_ref":"wal_eV9nNyLc54oO","settled_amount":20,"date":"2023-10-20T11:08:37.267Z","new_balance":203070.19,"category":"fee","multiple_source_details":[],"account_type":"business account","is_deleted":false},{"sync_status":"n/a","currency":"NGN","supporting_documents":[],"is_for_bill":false,"is_expense_account_transaction":false,"transaction_trail":[],"is_automated_settlement":false,"amount":300,"description":"Transaction charge for inflow","business_id":"8ed10fcc-1e1c-4ad1-9ed8-e870d6543349","status":"successful","provider_ref_id":"","channel":"in-system","type":"debit","vat":null,"fee_amount":300,"account_ref":"","transaction_ref":"dp_trans_39eda261c91546b2da837f6241c1a28f","wallet_ref":"wal_eV9nNyLc54oO","settled_amount":300,"date":"2023-10-20T11:08:36.765Z","new_balance":203090.19,"category":"fee","multiple_source_details":[],"account_type":"business account","is_deleted":false},{"source_details":{"bank_name":"ACCESS BANK","account_name":"David Igbigbi","account_number":"0694002924"},"receiver_details":{"bank_name":"Wema Bank","account_name":"Backend Test","account_number":"8890002366"},"sync_status":"n/a","currency":"NGN","supporting_documents":[],"is_for_bill":false,"is_expense_account_transaction":false,"transaction_trail":[],"is_automated_settlement":false,"new_balance":203390.19,"account_number":"8890002366","session_id":"4800000000709039457000808900004948087000000o009000900","provider_ref_id":"40000000004900020394909800974008400000500090300000","type":"credit","channel":"nip","description":"Second contract payment","business_id":"8ed10fcc-1e1c-4ad1-9ed8-e870d6543349","account":{"_id":"65325158e89466000d303315","first_name":"Backend","last_name":"Test","account_ref":"act_NXLTXJ92wBpV","status":"inactive"},"account_ref":"act_NXLTXJ92wBpV","wallet_ref":"wal_eV9nNyLc54oO","status":"successful","transaction_ref":"tran_qeDWHtbJTm3O","fee_amount":0,"settled_amount":30300,"amount":30300,"date":"2023-10-20T11:08:12.213Z","category":"invoice","multiple_source_details":[],"payment_method":"pay-with-transfer","account_type":"business account","is_deleted":false},{"source_details":{"bank_name":"ACCESS BANK","account_name":"David Igbigbi","account_number":"0694002924"},"receiver_details":{"bank_name":"Wema Bank","account_name":"Backend Test","account_number":"8890002365"},"sync_status":"n/a","currency":"NGN","supporting_documents":[],"is_for_bill":false,"is_expense_account_transaction":false,"transaction_trail":[],"is_automated_settlement":false,"new_balance":203390.19,"account_number":"8890002365","session_id":"48000000007090394570008089000049480870000o009000900","provider_ref_id":"400000000049000203949098009740084000050090300000","type":"credit","channel":"nip","description":"Second contract payment","business_id":"8ed10fcc-1e1c-4ad1-9ed8-e870d6543349","account":{"_id":"6532505fe89466000d303313","first_name":"Backend","last_name":"Test","account_ref":"act_RyrB4tnuvfmC","status":"active"},"account_ref":"act_RyrB4tnuvfmC","wallet_ref":"wal_eV9nNyLc54oO","status":"successful","transaction_ref":"tran_TBHiHcjOKctG","fee_amount":0,"settled_amount":30300,"amount":30300,"date":"2023-10-20T11:04:46.151Z","category":"invoice","multiple_source_details":[],"account_type":"business account","is_deleted":false}],"meta":{"page":1,"limit":20,"previousPage":false,"nextPage":2,"pageCount":17,"total":337}},"errors":{},"message":"Transactions retrieved successfully"}